{
  "sunday": [],
  "thursday": [],
  "wednesday": [],
  "friday": [],
  "saturday": [
    {
      "poster": "poster",
      "name": "Comedy openmic saturday",
      "time": "08-23-2019 | 08:00 pm",
      "eventAvailable": "Completly Free",
      "address": "A-411, citrusbug",
      "about": "Lorem ipsum dolor sit amet, consectetur adipiscing elit. Maecenas eleifend urna ligula…Lorem ipsum dolor sit amet, consectetur adipiscing elit. Maecenas eleifend urna ligula…",
      "location":"Brighton bar"
    },
    {
      "poster": "poster",
      "name": "Comedy openmic saturday",
      "time": "08-23-2019 | 08:00 pm",
      "eventAvailable": "Completly Free",
      "address": "A-411, citrusbug",
      "about": "Lorem ipsum dolor sit amet, consectetur adipiscing elit. Maecenas eleifend urna ligula…Lorem ipsum dolor sit amet, consectetur adipiscing elit. Maecenas eleifend urna ligula…",
      "location":"Brighton bar"
    },
    {
      "poster": "poster",
      "name": "Comedy openmic saturday",
      "time": "08-23-2019 | 08:00 pm",
      "eventAvailable": "Completly Free",
      "address": "A-411, citrusbug",
      "about": "Lorem ipsum dolor sit amet, consectetur adipiscing elit. Maecenas eleifend urna ligula…Lorem ipsum dolor sit amet, consectetur adipiscing elit. Maecenas eleifend urna ligula…",
      "location":"Brighton bar"
    },
    {
      "poster": "poster",
      "name": "Comedy openmic saturday",
      "time": "08-23-2019 | 08:00 pm",
      "eventAvailable": "Completly Free",
      "address": "A-411, citrusbug",
      "about": "Lorem ipsum dolor sit amet, consectetur adipiscing elit. Maecenas eleifend urna ligula…Lorem ipsum dolor sit amet, consectetur adipiscing elit. Maecenas eleifend urna ligula…",
      "location":"Brighton bar"
    },
    {
      "poster": "poster",
      "name": "Comedy openmic saturday",
      "time": "08-23-2019 | 08:00 pm",
      "eventAvailable": "Completly Free",
      "address": "A-411, citrusbug",
      "about": "Lorem ipsum dolor sit amet, consectetur adipiscing elit. Maecenas eleifend urna ligula…Lorem ipsum dolor sit amet, consectetur adipiscing elit. Maecenas eleifend urna ligula…",
      "location":"Brighton bar"
    },
    {
      "poster": "poster",
      "name": "Comedy openmic saturday",
      "time": "08-23-2019 | 08:00 pm",
      "eventAvailable": "Completly Free",
      "address": "A-411, citrusbug",
      "about": "Lorem ipsum dolor sit amet, consectetur adipiscing elit. Maecenas eleifend urna ligula…Lorem ipsum dolor sit amet, consectetur adipiscing elit. Maecenas eleifend urna ligula…",
      "location":"Brighton bar"
    },
    {
      "poster": "poster",
      "name": "Comedy openmic saturday",
      "time": "08-23-2019 | 08:00 pm",
      "eventAvailable": "Completly Free",
      "address": "A-411, citrusbug",
      "about": "Lorem ipsum dolor sit amet, consectetur adipiscing elit. Maecenas eleifend urna ligula…Lorem ipsum dolor sit amet, consectetur adipiscing elit. Maecenas eleifend urna ligula…",
      "location":"Brighton bar"
    },
    {
      "poster": "poster",
      "name": "Comedy openmic saturday",
      "time": "08-23-2019 | 08:00 pm",
      "eventAvailable": "Completly Free",
      "address": "A-411, citrusbug",
      "about": "Lorem ipsum dolor sit amet, consectetur adipiscing elit. Maecenas eleifend urna ligula…Lorem ipsum dolor sit amet, consectetur adipiscing elit. Maecenas eleifend urna ligula…",
      "location":"Brighton bar"
    },
    {
      "poster": "poster",
      "name": "Comedy openmic saturday",
      "time": "08-23-2019 | 08:00 pm",
      "eventAvailable": "Completly Free",
      "address": "A-411, citrusbug",
      "about": "Lorem ipsum dolor sit amet, consectetur adipiscing elit. Maecenas eleifend urna ligula…Lorem ipsum dolor sit amet, consectetur adipiscing elit. Maecenas eleifend urna ligula…",
      "location":"Brighton bar"
    },
    {
      "poster": "poster",
      "name": "Comedy openmic saturday",
      "time": "08-23-2019 | 08:00 pm",
      "eventAvailable": "Completly Free",
      "address": "A-411, citrusbug",
      "about": "Lorem ipsum dolor sit amet, consectetur adipiscing elit. Maecenas eleifend urna ligula…Lorem ipsum dolor sit amet, consectetur adipiscing elit. Maecenas eleifend urna ligula…",
      "location":"Brighton bar"
    },
    {
      "poster": "poster",
      "name": "Comedy openmic saturday",
      "time": "08-23-2019 | 08:00 pm",
      "eventAvailable": "Completly Free",
      "address": "A-411, citrusbug",
      "about": "Lorem ipsum dolor sit amet, consectetur adipiscing elit. Maecenas eleifend urna ligula…Lorem ipsum dolor sit amet, consectetur adipiscing elit. Maecenas eleifend urna ligula…",
      "location":"Brighton bar"
    },
    {
      "poster": "poster",
      "name": "Comedy openmic saturday",
      "time": "08-23-2019 | 08:00 pm",
      "eventAvailable": "Completly Free",
      "address": "A-411, citrusbug",
      "about": "Lorem ipsum dolor sit amet, consectetur adipiscing elit. Maecenas eleifend urna ligula…Lorem ipsum dolor sit amet, consectetur adipiscing elit. Maecenas eleifend urna ligula…",
      "location":"Brighton bar"
    }
  ],
  "monday": [
    {
      "poster": "poster",
      "name": "Comedy openmic monday",
      "time": "08-23-2019 | 08:00 pm",
      "eventAvailable": "Completly Free",
      "address": "A-411, citrusbug",
      "about": "Lorem ipsum dolor sit amet, consectetur adipiscing elit. Maecenas eleifend urna ligula…Lorem ipsum dolor sit amet, consectetur adipiscing elit. Maecenas eleifend urna ligula…",
      "location":"Brighton bar"
    },
    {
      "poster": "poster",
      "name": "Comedy openmic monday",
      "time": "08-23-2019 | 08:00 pm",
      "eventAvailable": "Completly Free",
      "address": "A-411, citrusbug",
      "about": "Lorem ipsum dolor sit amet, consectetur adipiscing elit. Maecenas eleifend urna ligula…Lorem ipsum dolor sit amet, consectetur adipiscing elit. Maecenas eleifend urna ligula…",
      "location":"Brighton bar"
    },
    {
      "poster": "poster",
      "name": "Comedy openmic monday",
      "time": "08-23-2019 | 08:00 pm",
      "eventAvailable": "Completly Free",
      "address": "A-411, citrusbug",
      "about": "Lorem ipsum dolor sit amet, consectetur adipiscing elit. Maecenas eleifend urna ligula…Lorem ipsum dolor sit amet, consectetur adipiscing elit. Maecenas eleifend urna ligula…",
      "location":"Brighton bar"
    },
    {
      "poster": "poster",
      "name": "Comedy openmic monday",
      "time": "08-23-2019 | 08:00 pm",
      "eventAvailable": "Completly Free",
      "address": "A-411, citrusbug",
      "about": "Lorem ipsum dolor sit amet, consectetur adipiscing elit. Maecenas eleifend urna ligula…Lorem ipsum dolor sit amet, consectetur adipiscing elit. Maecenas eleifend urna ligula…",
      "location":"Brighton bar"
    },
    {
      "poster": "poster",
      "name": "Comedy openmic monday",
      "time": "08-23-2019 | 08:00 pm",
      "eventAvailable": "Completly Free",
      "address": "A-411, citrusbug",
      "about": "Lorem ipsum dolor sit amet, consectetur adipiscing elit. Maecenas eleifend urna ligula…Lorem ipsum dolor sit amet, consectetur adipiscing elit. Maecenas eleifend urna ligula…",
      "location":"Brighton bar"
    },
    {
      "poster": "poster",
      "name": "Comedy openmic monday",
      "time": "08-23-2019 | 08:00 pm",
      "eventAvailable": "Completly Free",
      "address": "A-411, citrusbug",
      "about": "Lorem ipsum dolor sit amet, consectetur adipiscing elit. Maecenas eleifend urna ligula…Lorem ipsum dolor sit amet, consectetur adipiscing elit. Maecenas eleifend urna ligula…",
      "location":"Brighton bar"
    },
    {
      "poster": "poster",
      "name": "Comedy openmic monday",
      "time": "08-23-2019 | 08:00 pm",
      "eventAvailable": "Completly Free",
      "address": "A-411, citrusbug",
      "about": "Lorem ipsum dolor sit amet, consectetur adipiscing elit. Maecenas eleifend urna ligula…Lorem ipsum dolor sit amet, consectetur adipiscing elit. Maecenas eleifend urna ligula…",
      "location":"Brighton bar"
    },
    {
      "poster": "poster",
      "name": "Comedy openmic monday",
      "time": "08-23-2019 | 08:00 pm",
      "eventAvailable": "Completly Free",
      "address": "A-411, citrusbug",
      "about": "Lorem ipsum dolor sit amet, consectetur adipiscing elit. Maecenas eleifend urna ligula…Lorem ipsum dolor sit amet, consectetur adipiscing elit. Maecenas eleifend urna ligula…",
      "location":"Brighton bar"
    }
  ],

  "tuesday": [
    {
      "poster": "poster",
      "name": "Comedy openmic tuesday",
      "time": "08-23-2019 | 08:00 pm",
      "eventAvailable": "Completly Free",
      "address": "A-411, citrusbug",
      "about": "Lorem ipsum dolor sit amet, consectetur adipiscing elit. Maecenas eleifend urna ligula…Lorem ipsum dolor sit amet, consectetur adipiscing elit. Maecenas eleifend urna ligula…",
      "location":"Brighton bar"
    },
    {
      "poster": "poster",
      "name": "Comedy openmic tuesday",
      "time": "08-23-2019 | 08:00 pm",
      "eventAvailable": "Completly Free",
      "address": "A-411, citrusbug",
      "about": "Lorem ipsum dolor sit amet, consectetur adipiscing elit. Maecenas eleifend urna ligula…Lorem ipsum dolor sit amet, consectetur adipiscing elit. Maecenas eleifend urna ligula…",
      "location":"Brighton bar"
    },
    {
      "poster": "poster",
      "name": "Comedy openmic tuesday",
      "time": "08-23-2019 | 08:00 pm",
      "eventAvailable": "Completly Free",
      "address": "A-411, citrusbug",
      "about": "Lorem ipsum dolor sit amet, consectetur adipiscing elit. Maecenas eleifend urna ligula…Lorem ipsum dolor sit amet, consectetur adipiscing elit. Maecenas eleifend urna ligula…",
      "location":"Brighton bar"
    },
    {
      "poster": "poster",
      "name": "Comedy openmic tuesday",
      "time": "08-23-2019 | 08:00 pm",
      "eventAvailable": "Completly Free",
      "address": "A-411, citrusbug",
      "about": "Lorem ipsum dolor sit amet, consectetur adipiscing elit. Maecenas eleifend urna ligula…Lorem ipsum dolor sit amet, consectetur adipiscing elit. Maecenas eleifend urna ligula…",
      "location":"Brighton bar"
    },
    {
      "poster": "poster",
      "name": "Comedy openmic tuesday",
      "time": "08-23-2019 | 08:00 pm",
      "eventAvailable": "Completly Free",
      "address": "A-411, citrusbug",
      "about": "Lorem ipsum dolor sit amet, consectetur adipiscing elit. Maecenas eleifend urna ligula…Lorem ipsum dolor sit amet, consectetur adipiscing elit. Maecenas eleifend urna ligula…",
      "location":"Brighton bar"
    },
    {
      "poster": "poster",
      "name": "Comedy openmic tuesday",
      "time": "08-23-2019 | 08:00 pm",
      "eventAvailable": "Completly Free",
      "address": "A-411, citrusbug",
      "about": "Lorem ipsum dolor sit amet, consectetur adipiscing elit. Maecenas eleifend urna ligula…Lorem ipsum dolor sit amet, consectetur adipiscing elit. Maecenas eleifend urna ligula…",
      "location":"Brighton bar"
    },
    {
      "poster": "poster",
      "name": "Comedy openmic tuesday",
      "time": "08-23-2019 | 08:00 pm",
      "eventAvailable": "Completly Free",
      "address": "A-411, citrusbug",
      "about": "Lorem ipsum dolor sit amet, consectetur adipiscing elit. Maecenas eleifend urna ligula…Lorem ipsum dolor sit amet, consectetur adipiscing elit. Maecenas eleifend urna ligula…",
      "location":"Brighton bar"
    },
    {
      "poster": "poster",
      "name": "Comedy openmic tuesday",
      "time": "08-23-2019 | 08:00 pm",
      "eventAvailable": "Completly Free",
      "address": "A-411, citrusbug",
      "about": "Lorem ipsum dolor sit amet, consectetur adipiscing elit. Maecenas eleifend urna ligula…Lorem ipsum dolor sit amet, consectetur adipiscing elit. Maecenas eleifend urna ligula…",
      "location":"Brighton bar"
    }
  ]
}